%YAML 1.1
%TAG !u! tag:unity3d.com,2011:
--- !u!1 &3733197286048792797
GameObject:
  m_ObjectHideFlags: 0
  m_CorrespondingSourceObject: {fileID: 0}
  m_PrefabInstance: {fileID: 0}
  m_PrefabAsset: {fileID: 0}
  serializedVersion: 6
  m_Component:
  - component: {fileID: 5216283507010359623}
  - component: {fileID: 3406692506165481237}
  m_Layer: 0
  m_Name: OrderFactory
  m_TagString: Untagged
  m_Icon: {fileID: 0}
  m_NavMeshLayer: 0
  m_StaticEditorFlags: 0
  m_IsActive: 1
--- !u!4 &5216283507010359623
Transform:
  m_ObjectHideFlags: 0
  m_CorrespondingSourceObject: {fileID: 0}
  m_PrefabInstance: {fileID: 0}
  m_PrefabAsset: {fileID: 0}
  m_GameObject: {fileID: 3733197286048792797}
  m_LocalRotation: {x: 0, y: 0, z: 0, w: 1}
  m_LocalPosition: {x: 0, y: 0, z: 0}
  m_LocalScale: {x: 1, y: 1, z: 1}
  m_Children: []
  m_Father: {fileID: 0}
  m_RootOrder: 0
  m_LocalEulerAnglesHint: {x: 0, y: 0, z: 0}
--- !u!114 &3406692506165481237
MonoBehaviour:
  m_ObjectHideFlags: 0
  m_CorrespondingSourceObject: {fileID: 0}
  m_PrefabInstance: {fileID: 0}
  m_PrefabAsset: {fileID: 0}
  m_GameObject: {fileID: 3733197286048792797}
  m_Enabled: 1
  m_EditorHideFlags: 0
  m_Script: {fileID: 11500000, guid: 8aa3596465454144aa6f850262bce940, type: 3}
  m_Name: 
  m_EditorClassIdentifier: 
  MoveComponent: {fileID: 5748932514047435002, guid: c2367521b60964441a3329c30c78e49f,
    type: 3}
  EmptyComponent: {fileID: 8865637015748886683, guid: 83ac07b2595e7db4ba3545bc694d69c6,
    type: 3}
  OrderPrefab: {fileID: 8878205175075703818, guid: eeb4e4a9ff6436c40be39fcba916a455,
    type: 3}
